2019-07-25T01:11:22+00:00 CRITICAL require_once(): Failed opening required '/home/plazafitnessperf/public_html/wp-content/plugins/gym-management/template/account/.php' (include_path='.:/opt/cpanel/ea-php71/root/usr/share/pear') in /home/plazafitnessperf/public_html/wp-content/plugins/gym-management/fronted_template.php on line 338

2019-07-25T01:11:50+00:00 CRITICAL require_once(): Failed opening required '/home/plazafitnessperf/public_html/wp-content/plugins/gym-management/template/biometrics/.php' (include_path='.:/opt/cpanel/ea-php71/root/usr/share/pear') in /home/plazafitnessperf/public_html/wp-content/plugins/gym-management/fronted_template.php on line 338

2019-07-25T01:12:17+00:00 CRITICAL require_once(): Failed opening required '/home/plazafitnessperf/public_html/wp-content/plugins/gym-management/template/feedback/.php' (include_path='.:/opt/cpanel/ea-php71/root/usr/share/pear') in /home/plazafitnessperf/public_html/wp-content/plugins/gym-management/fronted_template.php on line 338

2019-07-25T01:12:38+00:00 CRITICAL require_once(): Failed opening required '/home/plazafitnessperf/public_html/wp-content/plugins/gym-management/template/gamification/.php' (include_path='.:/opt/cpanel/ea-php71/root/usr/share/pear') in /home/plazafitnessperf/public_html/wp-content/plugins/gym-management/fronted_template.php on line 338

2019-07-25T01:13:04+00:00 CRITICAL require_once(): Failed opening required '/home/plazafitnessperf/public_html/wp-content/plugins/gym-management/template/livestream-studio/.php' (include_path='.:/opt/cpanel/ea-php71/root/usr/share/pear') in /home/plazafitnessperf/public_html/wp-content/plugins/gym-management/fronted_template.php on line 338

2019-07-25T01:13:28+00:00 CRITICAL require_once(): Failed opening required '/home/plazafitnessperf/public_html/wp-content/plugins/gym-management/template/member/.php' (include_path='.:/opt/cpanel/ea-php71/root/usr/share/pear') in /home/plazafitnessperf/public_html/wp-content/plugins/gym-management/fronted_template.php on line 338

2019-07-25T01:13:51+00:00 CRITICAL require_once(): Failed opening required '/home/plazafitnessperf/public_html/wp-content/plugins/gym-management/template/message/.php' (include_path='.:/opt/cpanel/ea-php71/root/usr/share/pear') in /home/plazafitnessperf/public_html/wp-content/plugins/gym-management/fronted_template.php on line 338

2019-07-25T01:14:19+00:00 CRITICAL require_once(): Failed opening required '/home/plazafitnessperf/public_html/wp-content/plugins/gym-management/template/skills-school/.php' (include_path='.:/opt/cpanel/ea-php71/root/usr/share/pear') in /home/plazafitnessperf/public_html/wp-content/plugins/gym-management/fronted_template.php on line 338

2019-07-25T01:14:57+00:00 CRITICAL require_once(): Failed opening required '/home/plazafitnessperf/public_html/wp-content/plugins/gym-management/template/staff_member/.php' (include_path='.:/opt/cpanel/ea-php71/root/usr/share/pear') in /home/plazafitnessperf/public_html/wp-content/plugins/gym-management/fronted_template.php on line 338

2019-07-25T04:14:01+00:00 CRITICAL Uncaught Stripe\Error\InvalidRequest: Could not determine which URL to request: Stripe\Customer instance has invalid ID:  in /home/plazafitnessperf/public_html/stripe/lib/ApiResource.php:119
Stack trace:
#0 /home/plazafitnessperf/public_html/stripe/lib/ApiResource.php(132): Stripe\ApiResource::resourceUrl(NULL)
#1 /home/plazafitnessperf/public_html/stripe/lib/ApiResource.php(56): Stripe\ApiResource->instanceUrl()
#2 /home/plazafitnessperf/public_html/stripe/lib/ApiOperations/Retrieve.php(24): Stripe\ApiResource->refresh()
#3 /home/plazafitnessperf/public_html/stripe_web.php(11): Stripe\Customer::retrieve(NULL)
#4 {main}
  thrown in /home/plazafitnessperf/public_html/stripe/lib/ApiResource.php on line 119

2019-07-25T04:14:04+00:00 CRITICAL Uncaught Stripe\Error\InvalidRequest: Could not determine which URL to request: Stripe\Customer instance has invalid ID:  in /home/plazafitnessperf/public_html/stripe/lib/ApiResource.php:119
Stack trace:
#0 /home/plazafitnessperf/public_html/stripe/lib/ApiResource.php(132): Stripe\ApiResource::resourceUrl(NULL)
#1 /home/plazafitnessperf/public_html/stripe/lib/ApiResource.php(56): Stripe\ApiResource->instanceUrl()
#2 /home/plazafitnessperf/public_html/stripe/lib/ApiOperations/Retrieve.php(24): Stripe\ApiResource->refresh()
#3 /home/plazafitnessperf/public_html/stripe_web.php(11): Stripe\Customer::retrieve(NULL)
#4 {main}
  thrown in /home/plazafitnessperf/public_html/stripe/lib/ApiResource.php on line 119

2019-07-25T04:43:48+00:00 CRITICAL Uncaught Stripe\Error\InvalidRequest: Could not determine which URL to request: Stripe\Customer instance has invalid ID:  in /home/plazafitnessperf/public_html/stripe/lib/ApiResource.php:119
Stack trace:
#0 /home/plazafitnessperf/public_html/stripe/lib/ApiResource.php(132): Stripe\ApiResource::resourceUrl(NULL)
#1 /home/plazafitnessperf/public_html/stripe/lib/ApiResource.php(56): Stripe\ApiResource->instanceUrl()
#2 /home/plazafitnessperf/public_html/stripe/lib/ApiOperations/Retrieve.php(24): Stripe\ApiResource->refresh()
#3 /home/plazafitnessperf/public_html/stripe_web.php(11): Stripe\Customer::retrieve(NULL)
#4 {main}
  thrown in /home/plazafitnessperf/public_html/stripe/lib/ApiResource.php on line 119

2019-07-25T05:14:38+00:00 CRITICAL Uncaught Stripe\Error\InvalidRequest: Could not determine which URL to request: Stripe\Customer instance has invalid ID:  in /home/plazafitnessperf/public_html/stripe/lib/ApiResource.php:119
Stack trace:
#0 /home/plazafitnessperf/public_html/stripe/lib/ApiResource.php(132): Stripe\ApiResource::resourceUrl(NULL)
#1 /home/plazafitnessperf/public_html/stripe/lib/ApiResource.php(56): Stripe\ApiResource->instanceUrl()
#2 /home/plazafitnessperf/public_html/stripe/lib/ApiOperations/Retrieve.php(24): Stripe\ApiResource->refresh()
#3 /home/plazafitnessperf/public_html/stripe_web.php(11): Stripe\Customer::retrieve(NULL)
#4 {main}
  thrown in /home/plazafitnessperf/public_html/stripe/lib/ApiResource.php on line 119

2019-07-25T05:43:37+00:00 CRITICAL Uncaught Stripe\Error\InvalidRequest: Could not determine which URL to request: Stripe\Customer instance has invalid ID:  in /home/plazafitnessperf/public_html/stripe/lib/ApiResource.php:119
Stack trace:
#0 /home/plazafitnessperf/public_html/stripe/lib/ApiResource.php(132): Stripe\ApiResource::resourceUrl(NULL)
#1 /home/plazafitnessperf/public_html/stripe/lib/ApiResource.php(56): Stripe\ApiResource->instanceUrl()
#2 /home/plazafitnessperf/public_html/stripe/lib/ApiOperations/Retrieve.php(24): Stripe\ApiResource->refresh()
#3 /home/plazafitnessperf/public_html/stripe_web.php(11): Stripe\Customer::retrieve(NULL)
#4 {main}
  thrown in /home/plazafitnessperf/public_html/stripe/lib/ApiResource.php on line 119

2019-07-25T07:16:29+00:00 CRITICAL Uncaught Stripe\Error\InvalidRequest: Could not determine which URL to request: Stripe\Customer instance has invalid ID:  in /home/plazafitnessperf/public_html/stripe/lib/ApiResource.php:119
Stack trace:
#0 /home/plazafitnessperf/public_html/stripe/lib/ApiResource.php(132): Stripe\ApiResource::resourceUrl(NULL)
#1 /home/plazafitnessperf/public_html/stripe/lib/ApiResource.php(56): Stripe\ApiResource->instanceUrl()
#2 /home/plazafitnessperf/public_html/stripe/lib/ApiOperations/Retrieve.php(24): Stripe\ApiResource->refresh()
#3 /home/plazafitnessperf/public_html/stripe_web.php(11): Stripe\Customer::retrieve(NULL)
#4 {main}
  thrown in /home/plazafitnessperf/public_html/stripe/lib/ApiResource.php on line 119

2019-07-25T08:44:11+00:00 CRITICAL require_once(): Failed opening required '/home/plazafitnessperf/public_html/wp-content/plugins/gym-management/template/account/.php' (include_path='.:/opt/cpanel/ea-php71/root/usr/share/pear') in /home/plazafitnessperf/public_html/wp-content/plugins/gym-management/fronted_template.php on line 338

2019-07-25T08:44:33+00:00 CRITICAL require_once(): Failed opening required '/home/plazafitnessperf/public_html/wp-content/plugins/gym-management/template/biometrics/.php' (include_path='.:/opt/cpanel/ea-php71/root/usr/share/pear') in /home/plazafitnessperf/public_html/wp-content/plugins/gym-management/fronted_template.php on line 338

2019-07-25T08:44:50+00:00 CRITICAL require_once(): Failed opening required '/home/plazafitnessperf/public_html/wp-content/plugins/gym-management/template/feedback/.php' (include_path='.:/opt/cpanel/ea-php71/root/usr/share/pear') in /home/plazafitnessperf/public_html/wp-content/plugins/gym-management/fronted_template.php on line 338

2019-07-25T08:45:12+00:00 CRITICAL require_once(): Failed opening required '/home/plazafitnessperf/public_html/wp-content/plugins/gym-management/template/gamification/.php' (include_path='.:/opt/cpanel/ea-php71/root/usr/share/pear') in /home/plazafitnessperf/public_html/wp-content/plugins/gym-management/fronted_template.php on line 338

2019-07-25T08:45:34+00:00 CRITICAL require_once(): Failed opening required '/home/plazafitnessperf/public_html/wp-content/plugins/gym-management/template/livestream-studio/.php' (include_path='.:/opt/cpanel/ea-php71/root/usr/share/pear') in /home/plazafitnessperf/public_html/wp-content/plugins/gym-management/fronted_template.php on line 338

2019-07-25T08:45:56+00:00 CRITICAL require_once(): Failed opening required '/home/plazafitnessperf/public_html/wp-content/plugins/gym-management/template/member/.php' (include_path='.:/opt/cpanel/ea-php71/root/usr/share/pear') in /home/plazafitnessperf/public_html/wp-content/plugins/gym-management/fronted_template.php on line 338

2019-07-25T08:46:15+00:00 CRITICAL require_once(): Failed opening required '/home/plazafitnessperf/public_html/wp-content/plugins/gym-management/template/message/.php' (include_path='.:/opt/cpanel/ea-php71/root/usr/share/pear') in /home/plazafitnessperf/public_html/wp-content/plugins/gym-management/fronted_template.php on line 338

2019-07-25T08:46:39+00:00 CRITICAL require_once(): Failed opening required '/home/plazafitnessperf/public_html/wp-content/plugins/gym-management/template/skills-school/.php' (include_path='.:/opt/cpanel/ea-php71/root/usr/share/pear') in /home/plazafitnessperf/public_html/wp-content/plugins/gym-management/fronted_template.php on line 338

2019-07-25T08:47:01+00:00 CRITICAL require_once(): Failed opening required '/home/plazafitnessperf/public_html/wp-content/plugins/gym-management/template/staff_member/.php' (include_path='.:/opt/cpanel/ea-php71/root/usr/share/pear') in /home/plazafitnessperf/public_html/wp-content/plugins/gym-management/fronted_template.php on line 338

2019-07-25T08:47:24+00:00 CRITICAL require_once(): Failed opening required '/home/plazafitnessperf/public_html/wp-content/plugins/gym-management/template/strength-band-forum/.php' (include_path='.:/opt/cpanel/ea-php71/root/usr/share/pear') in /home/plazafitnessperf/public_html/wp-content/plugins/gym-management/fronted_template.php on line 338

2019-07-25T08:47:48+00:00 CRITICAL require_once(): Failed opening required '/home/plazafitnessperf/public_html/wp-content/plugins/gym-management/template/the-playbook/.php' (include_path='.:/opt/cpanel/ea-php71/root/usr/share/pear') in /home/plazafitnessperf/public_html/wp-content/plugins/gym-management/fronted_template.php on line 338

2019-07-25T08:48:14+00:00 CRITICAL require_once(): Failed opening required '/home/plazafitnessperf/public_html/wp-content/plugins/gym-management/template/workouts/.php' (include_path='.:/opt/cpanel/ea-php71/root/usr/share/pear') in /home/plazafitnessperf/public_html/wp-content/plugins/gym-management/fronted_template.php on line 338

2019-07-25T08:49:06+00:00 CRITICAL require_once(): Failed opening required '/home/plazafitnessperf/public_html/wp-content/plugins/gym-management/template/feedback/.php' (include_path='.:/opt/cpanel/ea-php71/root/usr/share/pear') in /home/plazafitnessperf/public_html/wp-content/plugins/gym-management/fronted_template.php on line 338

2019-07-25T08:49:33+00:00 CRITICAL require_once(): Failed opening required '/home/plazafitnessperf/public_html/wp-content/plugins/gym-management/template/gamification/.php' (include_path='.:/opt/cpanel/ea-php71/root/usr/share/pear') in /home/plazafitnessperf/public_html/wp-content/plugins/gym-management/fronted_template.php on line 338

2019-07-25T08:49:57+00:00 CRITICAL require_once(): Failed opening required '/home/plazafitnessperf/public_html/wp-content/plugins/gym-management/template/livestream-studio/.php' (include_path='.:/opt/cpanel/ea-php71/root/usr/share/pear') in /home/plazafitnessperf/public_html/wp-content/plugins/gym-management/fronted_template.php on line 338

2019-07-25T08:50:23+00:00 CRITICAL require_once(): Failed opening required '/home/plazafitnessperf/public_html/wp-content/plugins/gym-management/template/member/.php' (include_path='.:/opt/cpanel/ea-php71/root/usr/share/pear') in /home/plazafitnessperf/public_html/wp-content/plugins/gym-management/fronted_template.php on line 338

2019-07-25T08:50:48+00:00 CRITICAL require_once(): Failed opening required '/home/plazafitnessperf/public_html/wp-content/plugins/gym-management/template/message/.php' (include_path='.:/opt/cpanel/ea-php71/root/usr/share/pear') in /home/plazafitnessperf/public_html/wp-content/plugins/gym-management/fronted_template.php on line 338

2019-07-25T08:51:09+00:00 CRITICAL require_once(): Failed opening required '/home/plazafitnessperf/public_html/wp-content/plugins/gym-management/template/skills-school/.php' (include_path='.:/opt/cpanel/ea-php71/root/usr/share/pear') in /home/plazafitnessperf/public_html/wp-content/plugins/gym-management/fronted_template.php on line 338

2019-07-25T08:51:31+00:00 CRITICAL require_once(): Failed opening required '/home/plazafitnessperf/public_html/wp-content/plugins/gym-management/template/staff_member/.php' (include_path='.:/opt/cpanel/ea-php71/root/usr/share/pear') in /home/plazafitnessperf/public_html/wp-content/plugins/gym-management/fronted_template.php on line 338

2019-07-25T08:51:55+00:00 CRITICAL require_once(): Failed opening required '/home/plazafitnessperf/public_html/wp-content/plugins/gym-management/template/strength-band-forum/.php' (include_path='.:/opt/cpanel/ea-php71/root/usr/share/pear') in /home/plazafitnessperf/public_html/wp-content/plugins/gym-management/fronted_template.php on line 338

2019-07-25T08:52:20+00:00 CRITICAL require_once(): Failed opening required '/home/plazafitnessperf/public_html/wp-content/plugins/gym-management/template/the-playbook/.php' (include_path='.:/opt/cpanel/ea-php71/root/usr/share/pear') in /home/plazafitnessperf/public_html/wp-content/plugins/gym-management/fronted_template.php on line 338

2019-07-25T08:52:46+00:00 CRITICAL require_once(): Failed opening required '/home/plazafitnessperf/public_html/wp-content/plugins/gym-management/template/workouts/.php' (include_path='.:/opt/cpanel/ea-php71/root/usr/share/pear') in /home/plazafitnessperf/public_html/wp-content/plugins/gym-management/fronted_template.php on line 338

2019-07-25T08:53:08+00:00 CRITICAL require_once(): Failed opening required '/home/plazafitnessperf/public_html/wp-content/plugins/gym-management/template/your-performance-journey/.php' (include_path='.:/opt/cpanel/ea-php71/root/usr/share/pear') in /home/plazafitnessperf/public_html/wp-content/plugins/gym-management/fronted_template.php on line 338

2019-07-25T08:53:53+00:00 CRITICAL require_once(): Failed opening required '/home/plazafitnessperf/public_html/wp-content/plugins/gym-management/template/account/.php' (include_path='.:/opt/cpanel/ea-php71/root/usr/share/pear') in /home/plazafitnessperf/public_html/wp-content/plugins/gym-management/fronted_template.php on line 338

2019-07-25T08:54:17+00:00 CRITICAL require_once(): Failed opening required '/home/plazafitnessperf/public_html/wp-content/plugins/gym-management/template/biometrics/.php' (include_path='.:/opt/cpanel/ea-php71/root/usr/share/pear') in /home/plazafitnessperf/public_html/wp-content/plugins/gym-management/fronted_template.php on line 338

2019-07-25T08:54:37+00:00 CRITICAL require_once(): Failed opening required '/home/plazafitnessperf/public_html/wp-content/plugins/gym-management/template/feedback/.php' (include_path='.:/opt/cpanel/ea-php71/root/usr/share/pear') in /home/plazafitnessperf/public_html/wp-content/plugins/gym-management/fronted_template.php on line 338

2019-07-25T08:54:57+00:00 CRITICAL require_once(): Failed opening required '/home/plazafitnessperf/public_html/wp-content/plugins/gym-management/template/gamification/.php' (include_path='.:/opt/cpanel/ea-php71/root/usr/share/pear') in /home/plazafitnessperf/public_html/wp-content/plugins/gym-management/fronted_template.php on line 338

2019-07-25T08:55:21+00:00 CRITICAL require_once(): Failed opening required '/home/plazafitnessperf/public_html/wp-content/plugins/gym-management/template/livestream-studio/.php' (include_path='.:/opt/cpanel/ea-php71/root/usr/share/pear') in /home/plazafitnessperf/public_html/wp-content/plugins/gym-management/fronted_template.php on line 338

2019-07-25T08:55:38+00:00 CRITICAL require_once(): Failed opening required '/home/plazafitnessperf/public_html/wp-content/plugins/gym-management/template/member/.php' (include_path='.:/opt/cpanel/ea-php71/root/usr/share/pear') in /home/plazafitnessperf/public_html/wp-content/plugins/gym-management/fronted_template.php on line 338

2019-07-25T08:56:00+00:00 CRITICAL require_once(): Failed opening required '/home/plazafitnessperf/public_html/wp-content/plugins/gym-management/template/message/.php' (include_path='.:/opt/cpanel/ea-php71/root/usr/share/pear') in /home/plazafitnessperf/public_html/wp-content/plugins/gym-management/fronted_template.php on line 338

2019-07-25T08:56:20+00:00 CRITICAL require_once(): Failed opening required '/home/plazafitnessperf/public_html/wp-content/plugins/gym-management/template/skills-school/.php' (include_path='.:/opt/cpanel/ea-php71/root/usr/share/pear') in /home/plazafitnessperf/public_html/wp-content/plugins/gym-management/fronted_template.php on line 338

2019-07-25T08:56:46+00:00 CRITICAL require_once(): Failed opening required '/home/plazafitnessperf/public_html/wp-content/plugins/gym-management/template/staff_member/.php' (include_path='.:/opt/cpanel/ea-php71/root/usr/share/pear') in /home/plazafitnessperf/public_html/wp-content/plugins/gym-management/fronted_template.php on line 338

2019-07-25T08:57:08+00:00 CRITICAL require_once(): Failed opening required '/home/plazafitnessperf/public_html/wp-content/plugins/gym-management/template/strength-band-forum/.php' (include_path='.:/opt/cpanel/ea-php71/root/usr/share/pear') in /home/plazafitnessperf/public_html/wp-content/plugins/gym-management/fronted_template.php on line 338

2019-07-25T08:57:31+00:00 CRITICAL require_once(): Failed opening required '/home/plazafitnessperf/public_html/wp-content/plugins/gym-management/template/the-playbook/.php' (include_path='.:/opt/cpanel/ea-php71/root/usr/share/pear') in /home/plazafitnessperf/public_html/wp-content/plugins/gym-management/fronted_template.php on line 338

2019-07-25T08:57:54+00:00 CRITICAL require_once(): Failed opening required '/home/plazafitnessperf/public_html/wp-content/plugins/gym-management/template/workouts/.php' (include_path='.:/opt/cpanel/ea-php71/root/usr/share/pear') in /home/plazafitnessperf/public_html/wp-content/plugins/gym-management/fronted_template.php on line 338

2019-07-25T08:58:17+00:00 CRITICAL require_once(): Failed opening required '/home/plazafitnessperf/public_html/wp-content/plugins/gym-management/template/your-performance-journey/.php' (include_path='.:/opt/cpanel/ea-php71/root/usr/share/pear') in /home/plazafitnessperf/public_html/wp-content/plugins/gym-management/fronted_template.php on line 338

2019-07-25T08:59:06+00:00 CRITICAL require_once(): Failed opening required '/home/plazafitnessperf/public_html/wp-content/plugins/gym-management/template/account/.php' (include_path='.:/opt/cpanel/ea-php71/root/usr/share/pear') in /home/plazafitnessperf/public_html/wp-content/plugins/gym-management/fronted_template.php on line 338

2019-07-25T08:59:29+00:00 CRITICAL require_once(): Failed opening required '/home/plazafitnessperf/public_html/wp-content/plugins/gym-management/template/biometrics/.php' (include_path='.:/opt/cpanel/ea-php71/root/usr/share/pear') in /home/plazafitnessperf/public_html/wp-content/plugins/gym-management/fronted_template.php on line 338

2019-07-25T08:59:51+00:00 CRITICAL require_once(): Failed opening required '/home/plazafitnessperf/public_html/wp-content/plugins/gym-management/template/feedback/.php' (include_path='.:/opt/cpanel/ea-php71/root/usr/share/pear') in /home/plazafitnessperf/public_html/wp-content/plugins/gym-management/fronted_template.php on line 338

2019-07-25T09:00:09+00:00 CRITICAL require_once(): Failed opening required '/home/plazafitnessperf/public_html/wp-content/plugins/gym-management/template/gamification/.php' (include_path='.:/opt/cpanel/ea-php71/root/usr/share/pear') in /home/plazafitnessperf/public_html/wp-content/plugins/gym-management/fronted_template.php on line 338

2019-07-25T09:00:33+00:00 CRITICAL require_once(): Failed opening required '/home/plazafitnessperf/public_html/wp-content/plugins/gym-management/template/livestream-studio/.php' (include_path='.:/opt/cpanel/ea-php71/root/usr/share/pear') in /home/plazafitnessperf/public_html/wp-content/plugins/gym-management/fronted_template.php on line 338

2019-07-25T09:00:57+00:00 CRITICAL require_once(): Failed opening required '/home/plazafitnessperf/public_html/wp-content/plugins/gym-management/template/member/.php' (include_path='.:/opt/cpanel/ea-php71/root/usr/share/pear') in /home/plazafitnessperf/public_html/wp-content/plugins/gym-management/fronted_template.php on line 338

2019-07-25T09:01:16+00:00 CRITICAL require_once(): Failed opening required '/home/plazafitnessperf/public_html/wp-content/plugins/gym-management/template/message/.php' (include_path='.:/opt/cpanel/ea-php71/root/usr/share/pear') in /home/plazafitnessperf/public_html/wp-content/plugins/gym-management/fronted_template.php on line 338

2019-07-25T09:01:35+00:00 CRITICAL require_once(): Failed opening required '/home/plazafitnessperf/public_html/wp-content/plugins/gym-management/template/skills-school/.php' (include_path='.:/opt/cpanel/ea-php71/root/usr/share/pear') in /home/plazafitnessperf/public_html/wp-content/plugins/gym-management/fronted_template.php on line 338

2019-07-25T09:01:58+00:00 CRITICAL require_once(): Failed opening required '/home/plazafitnessperf/public_html/wp-content/plugins/gym-management/template/staff_member/.php' (include_path='.:/opt/cpanel/ea-php71/root/usr/share/pear') in /home/plazafitnessperf/public_html/wp-content/plugins/gym-management/fronted_template.php on line 338

2019-07-25T09:02:21+00:00 CRITICAL require_once(): Failed opening required '/home/plazafitnessperf/public_html/wp-content/plugins/gym-management/template/strength-band-forum/.php' (include_path='.:/opt/cpanel/ea-php71/root/usr/share/pear') in /home/plazafitnessperf/public_html/wp-content/plugins/gym-management/fronted_template.php on line 338

2019-07-25T09:02:40+00:00 CRITICAL require_once(): Failed opening required '/home/plazafitnessperf/public_html/wp-content/plugins/gym-management/template/the-playbook/.php' (include_path='.:/opt/cpanel/ea-php71/root/usr/share/pear') in /home/plazafitnessperf/public_html/wp-content/plugins/gym-management/fronted_template.php on line 338

2019-07-25T09:03:02+00:00 CRITICAL require_once(): Failed opening required '/home/plazafitnessperf/public_html/wp-content/plugins/gym-management/template/workouts/.php' (include_path='.:/opt/cpanel/ea-php71/root/usr/share/pear') in /home/plazafitnessperf/public_html/wp-content/plugins/gym-management/fronted_template.php on line 338

2019-07-25T09:03:24+00:00 CRITICAL require_once(): Failed opening required '/home/plazafitnessperf/public_html/wp-content/plugins/gym-management/template/your-performance-journey/.php' (include_path='.:/opt/cpanel/ea-php71/root/usr/share/pear') in /home/plazafitnessperf/public_html/wp-content/plugins/gym-management/fronted_template.php on line 338

2019-07-25T09:04:10+00:00 CRITICAL require_once(): Failed opening required '/home/plazafitnessperf/public_html/wp-content/plugins/gym-management/template/account/.php' (include_path='.:/opt/cpanel/ea-php71/root/usr/share/pear') in /home/plazafitnessperf/public_html/wp-content/plugins/gym-management/fronted_template.php on line 338

2019-07-25T09:04:32+00:00 CRITICAL require_once(): Failed opening required '/home/plazafitnessperf/public_html/wp-content/plugins/gym-management/template/biometrics/.php' (include_path='.:/opt/cpanel/ea-php71/root/usr/share/pear') in /home/plazafitnessperf/public_html/wp-content/plugins/gym-management/fronted_template.php on line 338

2019-07-25T09:05:00+00:00 CRITICAL require_once(): Failed opening required '/home/plazafitnessperf/public_html/wp-content/plugins/gym-management/template/feedback/.php' (include_path='.:/opt/cpanel/ea-php71/root/usr/share/pear') in /home/plazafitnessperf/public_html/wp-content/plugins/gym-management/fronted_template.php on line 338

2019-07-25T09:05:23+00:00 CRITICAL require_once(): Failed opening required '/home/plazafitnessperf/public_html/wp-content/plugins/gym-management/template/gamification/.php' (include_path='.:/opt/cpanel/ea-php71/root/usr/share/pear') in /home/plazafitnessperf/public_html/wp-content/plugins/gym-management/fronted_template.php on line 338

2019-07-25T09:05:46+00:00 CRITICAL require_once(): Failed opening required '/home/plazafitnessperf/public_html/wp-content/plugins/gym-management/template/livestream-studio/.php' (include_path='.:/opt/cpanel/ea-php71/root/usr/share/pear') in /home/plazafitnessperf/public_html/wp-content/plugins/gym-management/fronted_template.php on line 338

2019-07-25T09:06:08+00:00 CRITICAL require_once(): Failed opening required '/home/plazafitnessperf/public_html/wp-content/plugins/gym-management/template/member/.php' (include_path='.:/opt/cpanel/ea-php71/root/usr/share/pear') in /home/plazafitnessperf/public_html/wp-content/plugins/gym-management/fronted_template.php on line 338

2019-07-25T09:06:29+00:00 CRITICAL require_once(): Failed opening required '/home/plazafitnessperf/public_html/wp-content/plugins/gym-management/template/message/.php' (include_path='.:/opt/cpanel/ea-php71/root/usr/share/pear') in /home/plazafitnessperf/public_html/wp-content/plugins/gym-management/fronted_template.php on line 338

2019-07-25T09:06:52+00:00 CRITICAL require_once(): Failed opening required '/home/plazafitnessperf/public_html/wp-content/plugins/gym-management/template/skills-school/.php' (include_path='.:/opt/cpanel/ea-php71/root/usr/share/pear') in /home/plazafitnessperf/public_html/wp-content/plugins/gym-management/fronted_template.php on line 338

2019-07-25T09:07:10+00:00 CRITICAL require_once(): Failed opening required '/home/plazafitnessperf/public_html/wp-content/plugins/gym-management/template/staff_member/.php' (include_path='.:/opt/cpanel/ea-php71/root/usr/share/pear') in /home/plazafitnessperf/public_html/wp-content/plugins/gym-management/fronted_template.php on line 338

2019-07-25T09:07:33+00:00 CRITICAL require_once(): Failed opening required '/home/plazafitnessperf/public_html/wp-content/plugins/gym-management/template/strength-band-forum/.php' (include_path='.:/opt/cpanel/ea-php71/root/usr/share/pear') in /home/plazafitnessperf/public_html/wp-content/plugins/gym-management/fronted_template.php on line 338

2019-07-25T09:07:54+00:00 CRITICAL require_once(): Failed opening required '/home/plazafitnessperf/public_html/wp-content/plugins/gym-management/template/the-playbook/.php' (include_path='.:/opt/cpanel/ea-php71/root/usr/share/pear') in /home/plazafitnessperf/public_html/wp-content/plugins/gym-management/fronted_template.php on line 338

2019-07-25T09:08:17+00:00 CRITICAL require_once(): Failed opening required '/home/plazafitnessperf/public_html/wp-content/plugins/gym-management/template/workouts/.php' (include_path='.:/opt/cpanel/ea-php71/root/usr/share/pear') in /home/plazafitnessperf/public_html/wp-content/plugins/gym-management/fronted_template.php on line 338

2019-07-25T09:08:35+00:00 CRITICAL require_once(): Failed opening required '/home/plazafitnessperf/public_html/wp-content/plugins/gym-management/template/your-performance-journey/.php' (include_path='.:/opt/cpanel/ea-php71/root/usr/share/pear') in /home/plazafitnessperf/public_html/wp-content/plugins/gym-management/fronted_template.php on line 338

2019-07-25T09:09:17+00:00 CRITICAL require_once(): Failed opening required '/home/plazafitnessperf/public_html/wp-content/plugins/gym-management/template/account/.php' (include_path='.:/opt/cpanel/ea-php71/root/usr/share/pear') in /home/plazafitnessperf/public_html/wp-content/plugins/gym-management/fronted_template.php on line 338

2019-07-25T09:09:35+00:00 CRITICAL require_once(): Failed opening required '/home/plazafitnessperf/public_html/wp-content/plugins/gym-management/template/biometrics/.php' (include_path='.:/opt/cpanel/ea-php71/root/usr/share/pear') in /home/plazafitnessperf/public_html/wp-content/plugins/gym-management/fronted_template.php on line 338

2019-07-25T09:09:56+00:00 CRITICAL require_once(): Failed opening required '/home/plazafitnessperf/public_html/wp-content/plugins/gym-management/template/feedback/.php' (include_path='.:/opt/cpanel/ea-php71/root/usr/share/pear') in /home/plazafitnessperf/public_html/wp-content/plugins/gym-management/fronted_template.php on line 338

2019-07-25T09:10:18+00:00 CRITICAL require_once(): Failed opening required '/home/plazafitnessperf/public_html/wp-content/plugins/gym-management/template/gamification/.php' (include_path='.:/opt/cpanel/ea-php71/root/usr/share/pear') in /home/plazafitnessperf/public_html/wp-content/plugins/gym-management/fronted_template.php on line 338

2019-07-25T09:10:35+00:00 CRITICAL require_once(): Failed opening required '/home/plazafitnessperf/public_html/wp-content/plugins/gym-management/template/livestream-studio/.php' (include_path='.:/opt/cpanel/ea-php71/root/usr/share/pear') in /home/plazafitnessperf/public_html/wp-content/plugins/gym-management/fronted_template.php on line 338

2019-07-25T09:10:52+00:00 CRITICAL require_once(): Failed opening required '/home/plazafitnessperf/public_html/wp-content/plugins/gym-management/template/member/.php' (include_path='.:/opt/cpanel/ea-php71/root/usr/share/pear') in /home/plazafitnessperf/public_html/wp-content/plugins/gym-management/fronted_template.php on line 338

2019-07-25T09:11:10+00:00 CRITICAL require_once(): Failed opening required '/home/plazafitnessperf/public_html/wp-content/plugins/gym-management/template/message/.php' (include_path='.:/opt/cpanel/ea-php71/root/usr/share/pear') in /home/plazafitnessperf/public_html/wp-content/plugins/gym-management/fronted_template.php on line 338

2019-07-25T09:11:26+00:00 CRITICAL require_once(): Failed opening required '/home/plazafitnessperf/public_html/wp-content/plugins/gym-management/template/skills-school/.php' (include_path='.:/opt/cpanel/ea-php71/root/usr/share/pear') in /home/plazafitnessperf/public_html/wp-content/plugins/gym-management/fronted_template.php on line 338

2019-07-25T09:11:44+00:00 CRITICAL require_once(): Failed opening required '/home/plazafitnessperf/public_html/wp-content/plugins/gym-management/template/staff_member/.php' (include_path='.:/opt/cpanel/ea-php71/root/usr/share/pear') in /home/plazafitnessperf/public_html/wp-content/plugins/gym-management/fronted_template.php on line 338

2019-07-25T09:12:01+00:00 CRITICAL require_once(): Failed opening required '/home/plazafitnessperf/public_html/wp-content/plugins/gym-management/template/strength-band-forum/.php' (include_path='.:/opt/cpanel/ea-php71/root/usr/share/pear') in /home/plazafitnessperf/public_html/wp-content/plugins/gym-management/fronted_template.php on line 338

2019-07-25T09:12:18+00:00 CRITICAL require_once(): Failed opening required '/home/plazafitnessperf/public_html/wp-content/plugins/gym-management/template/the-playbook/.php' (include_path='.:/opt/cpanel/ea-php71/root/usr/share/pear') in /home/plazafitnessperf/public_html/wp-content/plugins/gym-management/fronted_template.php on line 338

2019-07-25T09:12:35+00:00 CRITICAL require_once(): Failed opening required '/home/plazafitnessperf/public_html/wp-content/plugins/gym-management/template/workouts/.php' (include_path='.:/opt/cpanel/ea-php71/root/usr/share/pear') in /home/plazafitnessperf/public_html/wp-content/plugins/gym-management/fronted_template.php on line 338

2019-07-25T09:12:57+00:00 CRITICAL require_once(): Failed opening required '/home/plazafitnessperf/public_html/wp-content/plugins/gym-management/template/your-performance-journey/.php' (include_path='.:/opt/cpanel/ea-php71/root/usr/share/pear') in /home/plazafitnessperf/public_html/wp-content/plugins/gym-management/fronted_template.php on line 338

2019-07-25T09:13:35+00:00 CRITICAL require_once(): Failed opening required '/home/plazafitnessperf/public_html/wp-content/plugins/gym-management/template/account/.php' (include_path='.:/opt/cpanel/ea-php71/root/usr/share/pear') in /home/plazafitnessperf/public_html/wp-content/plugins/gym-management/fronted_template.php on line 338

2019-07-25T09:13:52+00:00 CRITICAL require_once(): Failed opening required '/home/plazafitnessperf/public_html/wp-content/plugins/gym-management/template/biometrics/.php' (include_path='.:/opt/cpanel/ea-php71/root/usr/share/pear') in /home/plazafitnessperf/public_html/wp-content/plugins/gym-management/fronted_template.php on line 338

2019-07-25T09:14:10+00:00 CRITICAL require_once(): Failed opening required '/home/plazafitnessperf/public_html/wp-content/plugins/gym-management/template/feedback/.php' (include_path='.:/opt/cpanel/ea-php71/root/usr/share/pear') in /home/plazafitnessperf/public_html/wp-content/plugins/gym-management/fronted_template.php on line 338

2019-07-25T09:14:32+00:00 CRITICAL require_once(): Failed opening required '/home/plazafitnessperf/public_html/wp-content/plugins/gym-management/template/gamification/.php' (include_path='.:/opt/cpanel/ea-php71/root/usr/share/pear') in /home/plazafitnessperf/public_html/wp-content/plugins/gym-management/fronted_template.php on line 338

2019-07-25T09:14:49+00:00 CRITICAL require_once(): Failed opening required '/home/plazafitnessperf/public_html/wp-content/plugins/gym-management/template/livestream-studio/.php' (include_path='.:/opt/cpanel/ea-php71/root/usr/share/pear') in /home/plazafitnessperf/public_html/wp-content/plugins/gym-management/fronted_template.php on line 338

2019-07-25T09:15:11+00:00 CRITICAL require_once(): Failed opening required '/home/plazafitnessperf/public_html/wp-content/plugins/gym-management/template/member/.php' (include_path='.:/opt/cpanel/ea-php71/root/usr/share/pear') in /home/plazafitnessperf/public_html/wp-content/plugins/gym-management/fronted_template.php on line 338

2019-07-25T09:15:33+00:00 CRITICAL require_once(): Failed opening required '/home/plazafitnessperf/public_html/wp-content/plugins/gym-management/template/message/.php' (include_path='.:/opt/cpanel/ea-php71/root/usr/share/pear') in /home/plazafitnessperf/public_html/wp-content/plugins/gym-management/fronted_template.php on line 338

2019-07-25T09:15:52+00:00 CRITICAL require_once(): Failed opening required '/home/plazafitnessperf/public_html/wp-content/plugins/gym-management/template/skills-school/.php' (include_path='.:/opt/cpanel/ea-php71/root/usr/share/pear') in /home/plazafitnessperf/public_html/wp-content/plugins/gym-management/fronted_template.php on line 338

2019-07-25T09:16:13+00:00 CRITICAL require_once(): Failed opening required '/home/plazafitnessperf/public_html/wp-content/plugins/gym-management/template/staff_member/.php' (include_path='.:/opt/cpanel/ea-php71/root/usr/share/pear') in /home/plazafitnessperf/public_html/wp-content/plugins/gym-management/fronted_template.php on line 338

2019-07-25T09:16:30+00:00 CRITICAL require_once(): Failed opening required '/home/plazafitnessperf/public_html/wp-content/plugins/gym-management/template/strength-band-forum/.php' (include_path='.:/opt/cpanel/ea-php71/root/usr/share/pear') in /home/plazafitnessperf/public_html/wp-content/plugins/gym-management/fronted_template.php on line 338

2019-07-25T09:16:52+00:00 CRITICAL require_once(): Failed opening required '/home/plazafitnessperf/public_html/wp-content/plugins/gym-management/template/the-playbook/.php' (include_path='.:/opt/cpanel/ea-php71/root/usr/share/pear') in /home/plazafitnessperf/public_html/wp-content/plugins/gym-management/fronted_template.php on line 338

2019-07-25T09:17:09+00:00 CRITICAL require_once(): Failed opening required '/home/plazafitnessperf/public_html/wp-content/plugins/gym-management/template/workouts/.php' (include_path='.:/opt/cpanel/ea-php71/root/usr/share/pear') in /home/plazafitnessperf/public_html/wp-content/plugins/gym-management/fronted_template.php on line 338

2019-07-25T09:17:47+00:00 CRITICAL require_once(): Failed opening required '/home/plazafitnessperf/public_html/wp-content/plugins/gym-management/template/member/.php' (include_path='.:/opt/cpanel/ea-php71/root/usr/share/pear') in /home/plazafitnessperf/public_html/wp-content/plugins/gym-management/fronted_template.php on line 338

2019-07-25T09:18:04+00:00 CRITICAL require_once(): Failed opening required '/home/plazafitnessperf/public_html/wp-content/plugins/gym-management/template/message/.php' (include_path='.:/opt/cpanel/ea-php71/root/usr/share/pear') in /home/plazafitnessperf/public_html/wp-content/plugins/gym-management/fronted_template.php on line 338

2019-07-25T09:18:20+00:00 CRITICAL require_once(): Failed opening required '/home/plazafitnessperf/public_html/wp-content/plugins/gym-management/template/skills-school/.php' (include_path='.:/opt/cpanel/ea-php71/root/usr/share/pear') in /home/plazafitnessperf/public_html/wp-content/plugins/gym-management/fronted_template.php on line 338

2019-07-25T09:18:37+00:00 CRITICAL require_once(): Failed opening required '/home/plazafitnessperf/public_html/wp-content/plugins/gym-management/template/staff_member/.php' (include_path='.:/opt/cpanel/ea-php71/root/usr/share/pear') in /home/plazafitnessperf/public_html/wp-content/plugins/gym-management/fronted_template.php on line 338

2019-07-25T09:18:59+00:00 CRITICAL require_once(): Failed opening required '/home/plazafitnessperf/public_html/wp-content/plugins/gym-management/template/strength-band-forum/.php' (include_path='.:/opt/cpanel/ea-php71/root/usr/share/pear') in /home/plazafitnessperf/public_html/wp-content/plugins/gym-management/fronted_template.php on line 338

2019-07-25T09:19:15+00:00 CRITICAL require_once(): Failed opening required '/home/plazafitnessperf/public_html/wp-content/plugins/gym-management/template/the-playbook/.php' (include_path='.:/opt/cpanel/ea-php71/root/usr/share/pear') in /home/plazafitnessperf/public_html/wp-content/plugins/gym-management/fronted_template.php on line 338

2019-07-25T09:19:32+00:00 CRITICAL require_once(): Failed opening required '/home/plazafitnessperf/public_html/wp-content/plugins/gym-management/template/workouts/.php' (include_path='.:/opt/cpanel/ea-php71/root/usr/share/pear') in /home/plazafitnessperf/public_html/wp-content/plugins/gym-management/fronted_template.php on line 338

2019-07-25T09:19:49+00:00 CRITICAL require_once(): Failed opening required '/home/plazafitnessperf/public_html/wp-content/plugins/gym-management/template/your-performance-journey/.php' (include_path='.:/opt/cpanel/ea-php71/root/usr/share/pear') in /home/plazafitnessperf/public_html/wp-content/plugins/gym-management/fronted_template.php on line 338

2019-07-25T09:20:31+00:00 CRITICAL require_once(): Failed opening required '/home/plazafitnessperf/public_html/wp-content/plugins/gym-management/template/account/.php' (include_path='.:/opt/cpanel/ea-php71/root/usr/share/pear') in /home/plazafitnessperf/public_html/wp-content/plugins/gym-management/fronted_template.php on line 338

2019-07-25T09:20:52+00:00 CRITICAL require_once(): Failed opening required '/home/plazafitnessperf/public_html/wp-content/plugins/gym-management/template/biometrics/.php' (include_path='.:/opt/cpanel/ea-php71/root/usr/share/pear') in /home/plazafitnessperf/public_html/wp-content/plugins/gym-management/fronted_template.php on line 338

2019-07-25T09:21:10+00:00 CRITICAL require_once(): Failed opening required '/home/plazafitnessperf/public_html/wp-content/plugins/gym-management/template/feedback/.php' (include_path='.:/opt/cpanel/ea-php71/root/usr/share/pear') in /home/plazafitnessperf/public_html/wp-content/plugins/gym-management/fronted_template.php on line 338

2019-07-25T09:21:31+00:00 CRITICAL require_once(): Failed opening required '/home/plazafitnessperf/public_html/wp-content/plugins/gym-management/template/feedback/.php' (include_path='.:/opt/cpanel/ea-php71/root/usr/share/pear') in /home/plazafitnessperf/public_html/wp-content/plugins/gym-management/fronted_template.php on line 338

2019-07-25T09:21:53+00:00 CRITICAL require_once(): Failed opening required '/home/plazafitnessperf/public_html/wp-content/plugins/gym-management/template/livestream-studio/.php' (include_path='.:/opt/cpanel/ea-php71/root/usr/share/pear') in /home/plazafitnessperf/public_html/wp-content/plugins/gym-management/fronted_template.php on line 338

2019-07-25T09:22:10+00:00 CRITICAL require_once(): Failed opening required '/home/plazafitnessperf/public_html/wp-content/plugins/gym-management/template/member/.php' (include_path='.:/opt/cpanel/ea-php71/root/usr/share/pear') in /home/plazafitnessperf/public_html/wp-content/plugins/gym-management/fronted_template.php on line 338

2019-07-25T09:22:32+00:00 CRITICAL require_once(): Failed opening required '/home/plazafitnessperf/public_html/wp-content/plugins/gym-management/template/message/.php' (include_path='.:/opt/cpanel/ea-php71/root/usr/share/pear') in /home/plazafitnessperf/public_html/wp-content/plugins/gym-management/fronted_template.php on line 338

2019-07-25T09:22:53+00:00 CRITICAL require_once(): Failed opening required '/home/plazafitnessperf/public_html/wp-content/plugins/gym-management/template/skills-school/.php' (include_path='.:/opt/cpanel/ea-php71/root/usr/share/pear') in /home/plazafitnessperf/public_html/wp-content/plugins/gym-management/fronted_template.php on line 338

2019-07-25T09:23:15+00:00 CRITICAL require_once(): Failed opening required '/home/plazafitnessperf/public_html/wp-content/plugins/gym-management/template/staff_member/.php' (include_path='.:/opt/cpanel/ea-php71/root/usr/share/pear') in /home/plazafitnessperf/public_html/wp-content/plugins/gym-management/fronted_template.php on line 338

2019-07-25T09:23:32+00:00 CRITICAL require_once(): Failed opening required '/home/plazafitnessperf/public_html/wp-content/plugins/gym-management/template/strength-band-forum/.php' (include_path='.:/opt/cpanel/ea-php71/root/usr/share/pear') in /home/plazafitnessperf/public_html/wp-content/plugins/gym-management/fronted_template.php on line 338

2019-07-25T09:23:54+00:00 CRITICAL require_once(): Failed opening required '/home/plazafitnessperf/public_html/wp-content/plugins/gym-management/template/the-playbook/.php' (include_path='.:/opt/cpanel/ea-php71/root/usr/share/pear') in /home/plazafitnessperf/public_html/wp-content/plugins/gym-management/fronted_template.php on line 338

2019-07-25T09:24:10+00:00 CRITICAL require_once(): Failed opening required '/home/plazafitnessperf/public_html/wp-content/plugins/gym-management/template/workouts/.php' (include_path='.:/opt/cpanel/ea-php71/root/usr/share/pear') in /home/plazafitnessperf/public_html/wp-content/plugins/gym-management/fronted_template.php on line 338

2019-07-25T09:24:32+00:00 CRITICAL require_once(): Failed opening required '/home/plazafitnessperf/public_html/wp-content/plugins/gym-management/template/your-performance-journey/.php' (include_path='.:/opt/cpanel/ea-php71/root/usr/share/pear') in /home/plazafitnessperf/public_html/wp-content/plugins/gym-management/fronted_template.php on line 338

2019-07-25T09:25:15+00:00 CRITICAL require_once(): Failed opening required '/home/plazafitnessperf/public_html/wp-content/plugins/gym-management/template/account/.php' (include_path='.:/opt/cpanel/ea-php71/root/usr/share/pear') in /home/plazafitnessperf/public_html/wp-content/plugins/gym-management/fronted_template.php on line 338

2019-07-25T09:25:36+00:00 CRITICAL require_once(): Failed opening required '/home/plazafitnessperf/public_html/wp-content/plugins/gym-management/template/biometrics/.php' (include_path='.:/opt/cpanel/ea-php71/root/usr/share/pear') in /home/plazafitnessperf/public_html/wp-content/plugins/gym-management/fronted_template.php on line 338

2019-07-25T09:25:59+00:00 CRITICAL require_once(): Failed opening required '/home/plazafitnessperf/public_html/wp-content/plugins/gym-management/template/feedback/.php' (include_path='.:/opt/cpanel/ea-php71/root/usr/share/pear') in /home/plazafitnessperf/public_html/wp-content/plugins/gym-management/fronted_template.php on line 338

2019-07-25T09:26:16+00:00 CRITICAL require_once(): Failed opening required '/home/plazafitnessperf/public_html/wp-content/plugins/gym-management/template/gamification/.php' (include_path='.:/opt/cpanel/ea-php71/root/usr/share/pear') in /home/plazafitnessperf/public_html/wp-content/plugins/gym-management/fronted_template.php on line 338

2019-07-25T09:26:33+00:00 CRITICAL require_once(): Failed opening required '/home/plazafitnessperf/public_html/wp-content/plugins/gym-management/template/livestream-studio/.php' (include_path='.:/opt/cpanel/ea-php71/root/usr/share/pear') in /home/plazafitnessperf/public_html/wp-content/plugins/gym-management/fronted_template.php on line 338

2019-07-25T09:26:55+00:00 CRITICAL require_once(): Failed opening required '/home/plazafitnessperf/public_html/wp-content/plugins/gym-management/template/member/.php' (include_path='.:/opt/cpanel/ea-php71/root/usr/share/pear') in /home/plazafitnessperf/public_html/wp-content/plugins/gym-management/fronted_template.php on line 338

2019-07-25T09:27:12+00:00 CRITICAL require_once(): Failed opening required '/home/plazafitnessperf/public_html/wp-content/plugins/gym-management/template/message/.php' (include_path='.:/opt/cpanel/ea-php71/root/usr/share/pear') in /home/plazafitnessperf/public_html/wp-content/plugins/gym-management/fronted_template.php on line 338

2019-07-25T09:27:34+00:00 CRITICAL require_once(): Failed opening required '/home/plazafitnessperf/public_html/wp-content/plugins/gym-management/template/skills-school/.php' (include_path='.:/opt/cpanel/ea-php71/root/usr/share/pear') in /home/plazafitnessperf/public_html/wp-content/plugins/gym-management/fronted_template.php on line 338

2019-07-25T09:27:56+00:00 CRITICAL require_once(): Failed opening required '/home/plazafitnessperf/public_html/wp-content/plugins/gym-management/template/staff_member/.php' (include_path='.:/opt/cpanel/ea-php71/root/usr/share/pear') in /home/plazafitnessperf/public_html/wp-content/plugins/gym-management/fronted_template.php on line 338

2019-07-25T09:28:17+00:00 CRITICAL require_once(): Failed opening required '/home/plazafitnessperf/public_html/wp-content/plugins/gym-management/template/strength-band-forum/.php' (include_path='.:/opt/cpanel/ea-php71/root/usr/share/pear') in /home/plazafitnessperf/public_html/wp-content/plugins/gym-management/fronted_template.php on line 338

2019-07-25T09:28:39+00:00 CRITICAL require_once(): Failed opening required '/home/plazafitnessperf/public_html/wp-content/plugins/gym-management/template/the-playbook/.php' (include_path='.:/opt/cpanel/ea-php71/root/usr/share/pear') in /home/plazafitnessperf/public_html/wp-content/plugins/gym-management/fronted_template.php on line 338

2019-07-25T09:29:01+00:00 CRITICAL require_once(): Failed opening required '/home/plazafitnessperf/public_html/wp-content/plugins/gym-management/template/workouts/.php' (include_path='.:/opt/cpanel/ea-php71/root/usr/share/pear') in /home/plazafitnessperf/public_html/wp-content/plugins/gym-management/fronted_template.php on line 338

2019-07-25T09:29:17+00:00 CRITICAL require_once(): Failed opening required '/home/plazafitnessperf/public_html/wp-content/plugins/gym-management/template/your-performance-journey/.php' (include_path='.:/opt/cpanel/ea-php71/root/usr/share/pear') in /home/plazafitnessperf/public_html/wp-content/plugins/gym-management/fronted_template.php on line 338

2019-07-25T09:29:54+00:00 CRITICAL require_once(): Failed opening required '/home/plazafitnessperf/public_html/wp-content/plugins/gym-management/template/account/.php' (include_path='.:/opt/cpanel/ea-php71/root/usr/share/pear') in /home/plazafitnessperf/public_html/wp-content/plugins/gym-management/fronted_template.php on line 338

2019-07-25T09:30:16+00:00 CRITICAL require_once(): Failed opening required '/home/plazafitnessperf/public_html/wp-content/plugins/gym-management/template/biometrics/.php' (include_path='.:/opt/cpanel/ea-php71/root/usr/share/pear') in /home/plazafitnessperf/public_html/wp-content/plugins/gym-management/fronted_template.php on line 338

2019-07-25T09:30:33+00:00 CRITICAL require_once(): Failed opening required '/home/plazafitnessperf/public_html/wp-content/plugins/gym-management/template/feedback/.php' (include_path='.:/opt/cpanel/ea-php71/root/usr/share/pear') in /home/plazafitnessperf/public_html/wp-content/plugins/gym-management/fronted_template.php on line 338

2019-07-25T09:30:54+00:00 CRITICAL require_once(): Failed opening required '/home/plazafitnessperf/public_html/wp-content/plugins/gym-management/template/gamification/.php' (include_path='.:/opt/cpanel/ea-php71/root/usr/share/pear') in /home/plazafitnessperf/public_html/wp-content/plugins/gym-management/fronted_template.php on line 338

2019-07-25T09:31:16+00:00 CRITICAL require_once(): Failed opening required '/home/plazafitnessperf/public_html/wp-content/plugins/gym-management/template/livestream-studio/.php' (include_path='.:/opt/cpanel/ea-php71/root/usr/share/pear') in /home/plazafitnessperf/public_html/wp-content/plugins/gym-management/fronted_template.php on line 338

2019-07-25T09:31:33+00:00 CRITICAL require_once(): Failed opening required '/home/plazafitnessperf/public_html/wp-content/plugins/gym-management/template/member/.php' (include_path='.:/opt/cpanel/ea-php71/root/usr/share/pear') in /home/plazafitnessperf/public_html/wp-content/plugins/gym-management/fronted_template.php on line 338

2019-07-25T09:31:55+00:00 CRITICAL require_once(): Failed opening required '/home/plazafitnessperf/public_html/wp-content/plugins/gym-management/template/message/.php' (include_path='.:/opt/cpanel/ea-php71/root/usr/share/pear') in /home/plazafitnessperf/public_html/wp-content/plugins/gym-management/fronted_template.php on line 338

2019-07-25T09:32:17+00:00 CRITICAL require_once(): Failed opening required '/home/plazafitnessperf/public_html/wp-content/plugins/gym-management/template/skills-school/.php' (include_path='.:/opt/cpanel/ea-php71/root/usr/share/pear') in /home/plazafitnessperf/public_html/wp-content/plugins/gym-management/fronted_template.php on line 338

2019-07-25T09:32:34+00:00 CRITICAL require_once(): Failed opening required '/home/plazafitnessperf/public_html/wp-content/plugins/gym-management/template/staff_member/.php' (include_path='.:/opt/cpanel/ea-php71/root/usr/share/pear') in /home/plazafitnessperf/public_html/wp-content/plugins/gym-management/fronted_template.php on line 338

2019-07-25T09:32:56+00:00 CRITICAL require_once(): Failed opening required '/home/plazafitnessperf/public_html/wp-content/plugins/gym-management/template/strength-band-forum/.php' (include_path='.:/opt/cpanel/ea-php71/root/usr/share/pear') in /home/plazafitnessperf/public_html/wp-content/plugins/gym-management/fronted_template.php on line 338

2019-07-25T09:33:12+00:00 CRITICAL require_once(): Failed opening required '/home/plazafitnessperf/public_html/wp-content/plugins/gym-management/template/the-playbook/.php' (include_path='.:/opt/cpanel/ea-php71/root/usr/share/pear') in /home/plazafitnessperf/public_html/wp-content/plugins/gym-management/fronted_template.php on line 338

2019-07-25T09:33:34+00:00 CRITICAL require_once(): Failed opening required '/home/plazafitnessperf/public_html/wp-content/plugins/gym-management/template/workouts/.php' (include_path='.:/opt/cpanel/ea-php71/root/usr/share/pear') in /home/plazafitnessperf/public_html/wp-content/plugins/gym-management/fronted_template.php on line 338

2019-07-25T09:34:01+00:00 CRITICAL require_once(): Failed opening required '/home/plazafitnessperf/public_html/wp-content/plugins/gym-management/template/your-performance-journey/.php' (include_path='.:/opt/cpanel/ea-php71/root/usr/share/pear') in /home/plazafitnessperf/public_html/wp-content/plugins/gym-management/fronted_template.php on line 338

2019-07-25T09:34:38+00:00 CRITICAL require_once(): Failed opening required '/home/plazafitnessperf/public_html/wp-content/plugins/gym-management/template/account/.php' (include_path='.:/opt/cpanel/ea-php71/root/usr/share/pear') in /home/plazafitnessperf/public_html/wp-content/plugins/gym-management/fronted_template.php on line 338

2019-07-25T09:35:01+00:00 CRITICAL require_once(): Failed opening required '/home/plazafitnessperf/public_html/wp-content/plugins/gym-management/template/biometrics/.php' (include_path='.:/opt/cpanel/ea-php71/root/usr/share/pear') in /home/plazafitnessperf/public_html/wp-content/plugins/gym-management/fronted_template.php on line 338

2019-07-25T09:35:18+00:00 CRITICAL require_once(): Failed opening required '/home/plazafitnessperf/public_html/wp-content/plugins/gym-management/template/feedback/.php' (include_path='.:/opt/cpanel/ea-php71/root/usr/share/pear') in /home/plazafitnessperf/public_html/wp-content/plugins/gym-management/fronted_template.php on line 338

2019-07-25T09:35:35+00:00 CRITICAL require_once(): Failed opening required '/home/plazafitnessperf/public_html/wp-content/plugins/gym-management/template/gamification/.php' (include_path='.:/opt/cpanel/ea-php71/root/usr/share/pear') in /home/plazafitnessperf/public_html/wp-content/plugins/gym-management/fronted_template.php on line 338

2019-07-25T09:35:51+00:00 CRITICAL require_once(): Failed opening required '/home/plazafitnessperf/public_html/wp-content/plugins/gym-management/template/livestream-studio/.php' (include_path='.:/opt/cpanel/ea-php71/root/usr/share/pear') in /home/plazafitnessperf/public_html/wp-content/plugins/gym-management/fronted_template.php on line 338

2019-07-25T09:36:13+00:00 CRITICAL require_once(): Failed opening required '/home/plazafitnessperf/public_html/wp-content/plugins/gym-management/template/member/.php' (include_path='.:/opt/cpanel/ea-php71/root/usr/share/pear') in /home/plazafitnessperf/public_html/wp-content/plugins/gym-management/fronted_template.php on line 338

2019-07-25T09:36:30+00:00 CRITICAL require_once(): Failed opening required '/home/plazafitnessperf/public_html/wp-content/plugins/gym-management/template/message/.php' (include_path='.:/opt/cpanel/ea-php71/root/usr/share/pear') in /home/plazafitnessperf/public_html/wp-content/plugins/gym-management/fronted_template.php on line 338

2019-07-25T09:36:52+00:00 CRITICAL require_once(): Failed opening required '/home/plazafitnessperf/public_html/wp-content/plugins/gym-management/template/skills-school/.php' (include_path='.:/opt/cpanel/ea-php71/root/usr/share/pear') in /home/plazafitnessperf/public_html/wp-content/plugins/gym-management/fronted_template.php on line 338

2019-07-25T09:37:09+00:00 CRITICAL require_once(): Failed opening required '/home/plazafitnessperf/public_html/wp-content/plugins/gym-management/template/staff_member/.php' (include_path='.:/opt/cpanel/ea-php71/root/usr/share/pear') in /home/plazafitnessperf/public_html/wp-content/plugins/gym-management/fronted_template.php on line 338

2019-07-25T09:37:31+00:00 CRITICAL require_once(): Failed opening required '/home/plazafitnessperf/public_html/wp-content/plugins/gym-management/template/strength-band-forum/.php' (include_path='.:/opt/cpanel/ea-php71/root/usr/share/pear') in /home/plazafitnessperf/public_html/wp-content/plugins/gym-management/fronted_template.php on line 338

2019-07-25T09:37:50+00:00 CRITICAL require_once(): Failed opening required '/home/plazafitnessperf/public_html/wp-content/plugins/gym-management/template/the-playbook/.php' (include_path='.:/opt/cpanel/ea-php71/root/usr/share/pear') in /home/plazafitnessperf/public_html/wp-content/plugins/gym-management/fronted_template.php on line 338

2019-07-25T09:38:08+00:00 CRITICAL require_once(): Failed opening required '/home/plazafitnessperf/public_html/wp-content/plugins/gym-management/template/workouts/.php' (include_path='.:/opt/cpanel/ea-php71/root/usr/share/pear') in /home/plazafitnessperf/public_html/wp-content/plugins/gym-management/fronted_template.php on line 338

2019-07-25T09:38:29+00:00 CRITICAL require_once(): Failed opening required '/home/plazafitnessperf/public_html/wp-content/plugins/gym-management/template/your-performance-journey/.php' (include_path='.:/opt/cpanel/ea-php71/root/usr/share/pear') in /home/plazafitnessperf/public_html/wp-content/plugins/gym-management/fronted_template.php on line 338

2019-07-25T10:30:41+00:00 CRITICAL require_once(): Failed opening required '/home/plazafitnessperf/public_html/wp-content/plugins/gym-management/template/message/.php' (include_path='.:/opt/cpanel/ea-php71/root/usr/share/pear') in /home/plazafitnessperf/public_html/wp-content/plugins/gym-management/fronted_template.php on line 338

2019-07-25T10:30:58+00:00 CRITICAL require_once(): Failed opening required '/home/plazafitnessperf/public_html/wp-content/plugins/gym-management/template/skills-school/.php' (include_path='.:/opt/cpanel/ea-php71/root/usr/share/pear') in /home/plazafitnessperf/public_html/wp-content/plugins/gym-management/fronted_template.php on line 338

2019-07-25T10:31:21+00:00 CRITICAL require_once(): Failed opening required '/home/plazafitnessperf/public_html/wp-content/plugins/gym-management/template/staff_member/.php' (include_path='.:/opt/cpanel/ea-php71/root/usr/share/pear') in /home/plazafitnessperf/public_html/wp-content/plugins/gym-management/fronted_template.php on line 338

2019-07-25T10:31:39+00:00 CRITICAL require_once(): Failed opening required '/home/plazafitnessperf/public_html/wp-content/plugins/gym-management/template/strength-band-forum/.php' (include_path='.:/opt/cpanel/ea-php71/root/usr/share/pear') in /home/plazafitnessperf/public_html/wp-content/plugins/gym-management/fronted_template.php on line 338

2019-07-25T10:31:58+00:00 CRITICAL require_once(): Failed opening required '/home/plazafitnessperf/public_html/wp-content/plugins/gym-management/template/the-playbook/.php' (include_path='.:/opt/cpanel/ea-php71/root/usr/share/pear') in /home/plazafitnessperf/public_html/wp-content/plugins/gym-management/fronted_template.php on line 338

2019-07-25T10:32:17+00:00 CRITICAL require_once(): Failed opening required '/home/plazafitnessperf/public_html/wp-content/plugins/gym-management/template/workouts/.php' (include_path='.:/opt/cpanel/ea-php71/root/usr/share/pear') in /home/plazafitnessperf/public_html/wp-content/plugins/gym-management/fronted_template.php on line 338

2019-07-25T10:32:36+00:00 CRITICAL require_once(): Failed opening required '/home/plazafitnessperf/public_html/wp-content/plugins/gym-management/template/your-performance-journey/.php' (include_path='.:/opt/cpanel/ea-php71/root/usr/share/pear') in /home/plazafitnessperf/public_html/wp-content/plugins/gym-management/fronted_template.php on line 338

2019-07-25T12:48:58+00:00 CRITICAL require_once(): Failed opening required '/home/plazafitnessperf/public_html/wp-content/plugins/gym-management/template/message/.php' (include_path='.:/opt/cpanel/ea-php71/root/usr/share/pear') in /home/plazafitnessperf/public_html/wp-content/plugins/gym-management/fronted_template.php on line 338

2019-07-25T12:49:15+00:00 CRITICAL require_once(): Failed opening required '/home/plazafitnessperf/public_html/wp-content/plugins/gym-management/template/skills-school/.php' (include_path='.:/opt/cpanel/ea-php71/root/usr/share/pear') in /home/plazafitnessperf/public_html/wp-content/plugins/gym-management/fronted_template.php on line 338

2019-07-25T18:30:35+00:00 CRITICAL require_once(): Failed opening required '/home/plazafitnessperf/public_html/wp-content/plugins/gym-management/template/your-performance-journey/.php' (include_path='.:/opt/cpanel/ea-php71/root/usr/share/pear') in /home/plazafitnessperf/public_html/wp-content/plugins/gym-management/fronted_template.php on line 338

2019-07-25T18:30:54+00:00 CRITICAL require_once(): Failed opening required '/home/plazafitnessperf/public_html/wp-content/plugins/gym-management/template/member/.php' (include_path='.:/opt/cpanel/ea-php71/root/usr/share/pear') in /home/plazafitnessperf/public_html/wp-content/plugins/gym-management/fronted_template.php on line 338

2019-07-25T19:13:46+00:00 CRITICAL Uncaught Stripe\Error\InvalidRequest: Could not determine which URL to request: Stripe\Customer instance has invalid ID:  in /home/plazafitnessperf/public_html/stripe/lib/ApiResource.php:119
Stack trace:
#0 /home/plazafitnessperf/public_html/stripe/lib/ApiResource.php(132): Stripe\ApiResource::resourceUrl(NULL)
#1 /home/plazafitnessperf/public_html/stripe/lib/ApiResource.php(56): Stripe\ApiResource->instanceUrl()
#2 /home/plazafitnessperf/public_html/stripe/lib/ApiOperations/Retrieve.php(24): Stripe\ApiResource->refresh()
#3 /home/plazafitnessperf/public_html/stripe_web.php(11): Stripe\Customer::retrieve(NULL)
#4 {main}
  thrown in /home/plazafitnessperf/public_html/stripe/lib/ApiResource.php on line 119

2019-07-25T19:43:48+00:00 CRITICAL Uncaught Stripe\Error\InvalidRequest: Could not determine which URL to request: Stripe\Customer instance has invalid ID:  in /home/plazafitnessperf/public_html/stripe/lib/ApiResource.php:119
Stack trace:
#0 /home/plazafitnessperf/public_html/stripe/lib/ApiResource.php(132): Stripe\ApiResource::resourceUrl(NULL)
#1 /home/plazafitnessperf/public_html/stripe/lib/ApiResource.php(56): Stripe\ApiResource->instanceUrl()
#2 /home/plazafitnessperf/public_html/stripe/lib/ApiOperations/Retrieve.php(24): Stripe\ApiResource->refresh()
#3 /home/plazafitnessperf/public_html/stripe_web.php(11): Stripe\Customer::retrieve(NULL)
#4 {main}
  thrown in /home/plazafitnessperf/public_html/stripe/lib/ApiResource.php on line 119

2019-07-25T21:45:33+00:00 CRITICAL Uncaught Stripe\Error\InvalidRequest: Could not determine which URL to request: Stripe\Customer instance has invalid ID:  in /home/plazafitnessperf/public_html/stripe/lib/ApiResource.php:119
Stack trace:
#0 /home/plazafitnessperf/public_html/stripe/lib/ApiResource.php(132): Stripe\ApiResource::resourceUrl(NULL)
#1 /home/plazafitnessperf/public_html/stripe/lib/ApiResource.php(56): Stripe\ApiResource->instanceUrl()
#2 /home/plazafitnessperf/public_html/stripe/lib/ApiOperations/Retrieve.php(24): Stripe\ApiResource->refresh()
#3 /home/plazafitnessperf/public_html/stripe_web.php(11): Stripe\Customer::retrieve(NULL)
#4 {main}
  thrown in /home/plazafitnessperf/public_html/stripe/lib/ApiResource.php on line 119

2019-07-25T22:33:51+00:00 CRITICAL require_once(): Failed opening required '/home/plazafitnessperf/public_html/wp-content/plugins/gym-management/template/account/.php' (include_path='.:/opt/cpanel/ea-php71/root/usr/share/pear') in /home/plazafitnessperf/public_html/wp-content/plugins/gym-management/fronted_template.php on line 338

